C:\Users\Puthankalama\eclipse-workspace\SeptSelenium2021\src\test\java\listenerUtil\MyRetryAnalyzer.java
C:\Users\Puthankalama\eclipse-workspace\SeptSelenium2021\src\test\java\pages\DemoQAElementsPage.java
C:\Users\Puthankalama\eclipse-workspace\SeptSelenium2021\src\test\java\tests\DemoQAElementsPageTests.java
C:\Users\Puthankalama\eclipse-workspace\SeptSelenium2021\src\test\java\tests\LandingPageTests.java
C:\Users\Puthankalama\eclipse-workspace\SeptSelenium2021\src\test\java\listenerUtil\MyTransformer.java
C:\Users\Puthankalama\eclipse-workspace\SeptSelenium2021\src\test\java\utils\UtilMethods.java
C:\Users\Puthankalama\eclipse-workspace\SeptSelenium2021\src\test\java\pages\LandingPage.java
C:\Users\Puthankalama\eclipse-workspace\SeptSelenium2021\src\test\java\base\BaseClass.java
